Chapitre 03. Statistiques descriptives et visualisation des données bivariables ou multivariables. • sageR
…
data(Europe)

Europe_rad <- Europe[,-1]
rownames(Europe_rad) <- Europe[,1]

Europe_radar <- Europe_rad %>% 
  as_tibble(rownames = "group") %>% 
  mutate_at(vars(-group), rescale)
Europe_radar
#> # A tibble: 35 × 6
#>    group     Partiel_Ens Partiel_H Partiel_F Salariés NonSalariés
#>    <chr>           <dbl>     <dbl>     <dbl>    <dbl>       <dbl>
#>  1 Allemagne      0.524     0.313     0.610     0.248       0.640
#>  2 Autriche       0.524     0.298     0.616     0.333       0.904
#>  3 Belgique       0.476     0.336     0.532     0.143       1    
#>  4 Bulgarie       0         0         0         0.295       0.301
#>  5 Chypre         0.172     0.176     0.171     0.343       0.441
#>  6 Croatie        0.0600    0.0534    0.0629    0.267       0.419
#>  7 Danemark       0.462     0.519     0.435     0           0.544
#>  8 Espagne        0.261     0.195     0.295     0.190       0.596
#>  9 Estonie        0.195     0.206     0.189     0.248       0.316
#> 10 Finlande       0.282     0.321     0.263     0.171       0.551
#> # … with 25 more rows
…
